# Blender v2.74 (sub 0) OBJ File: ''
# www.blender.org
mtllib minecraft-steve.mtl
o Steve_LLeg
v -0.521593 3.497354 -1.138887
v -0.521593 3.497354 -0.002640
v 0.521593 3.497354 -0.002640
v 0.521592 3.497354 -1.138888
v -0.521593 0.502646 -1.138887
v -0.521592 0.502646 -0.002639
v 0.521593 0.502646 -1.138887
v 0.521593 0.502646 -0.002640
vt 0.122711 0.377515
vt 0.122790 0.486939
vt 0.062175 0.489947
vt 0.062097 0.380523
vt 0.250211 0.373175
vt 0.250211 0.001371
vt 0.187955 -0.001314
vt 0.187955 0.370491
vt 0.187525 0.000071
vt 0.187524 0.370784
vt 0.125900 0.370784
vt 0.125900 0.000071
vt -0.003674 0.368140
vt 0.003760 -0.002275
vt 0.065964 -0.002528
vt 0.058530 0.367886
vt 0.068050 0.365241
vt 0.068050 0.003935
vt 0.122484 0.003935
vt 0.122484 0.365241
vt 0.185797 0.496086
vt 0.129150 0.496087
vt 0.130335 0.384604
vt 0.186982 0.384604
vn -0.577300 0.577300 -0.577300
vn -0.577300 0.577300 0.577300
vn 0.577300 0.577300 0.577300
vn 0.577300 0.577300 -0.577300
vn -0.577300 -0.577300 -0.577300
vn -0.577300 -0.577300 0.577300
vn 0.577300 -0.577300 -0.577300
vn 0.577300 -0.577300 0.577300
usemtl Steve
s 1
f 1/1/1 2/2/2 3/3/3 4/4/4
f 1/5/1 5/6/5 6/7/6 2/8/2
f 5/9/5 1/10/1 4/11/4 7/12/7
f 2/13/2 6/14/6 8/15/8 3/16/3
f 3/17/3 8/18/8 7/19/7 4/20/4
f 5/21/5 7/22/7 8/23/8 6/24/6
o Steve_RArm
v -0.548908 6.487525 4.131316
v -0.560913 5.351346 4.134833
v 0.482139 5.340364 4.147407
v 0.494144 6.476543 4.143889
v -0.512911 6.477874 1.136839
v -0.524916 5.341696 1.140356
v 0.530140 6.466893 1.149413
v 0.518135 5.330714 1.152930
vt 0.810749 0.385914
vt 0.811271 0.499729
vt 0.759676 0.499733
vt 0.759154 0.385918
vt 0.747193 0.001975
vt 0.748349 0.364560
vt 0.693041 0.364662
vt 0.691885 0.002077
vt 0.692350 0.372208
vt 0.697119 0.006768
vt 0.755237 0.007035
vt 0.750468 0.372475
vt 0.752226 0.003554
vt 0.753944 0.372404
vt 0.690567 0.378607
vt 0.688849 0.009758
vt 0.756093 0.006957
vt 0.756694 0.363210
vt 0.689552 0.364713
vt 0.688950 0.008460
vt 0.686919 0.378174
vt 0.749925 0.378174
vt 0.749289 0.500739
vt 0.686282 0.500739
vn -0.578100 0.585300 0.568500
vn -0.590300 -0.569400 0.572100
vn 0.564200 -0.581500 0.586000
vn 0.576400 0.573100 0.582500
vn -0.564200 0.581500 -0.586000
vn -0.576400 -0.573100 -0.582500
vn 0.590300 0.569400 -0.572100
vn 0.578100 -0.585300 -0.568500
usemtl Steve
s 1
f 9/25/9 10/26/10 11/27/11 12/28/12
f 9/29/9 13/30/13 14/31/14 10/32/10
f 13/33/13 9/34/9 12/35/12 15/36/15
f 10/37/10 14/38/14 16/39/16 11/40/11
f 11/41/11 16/42/16 15/43/15 12/44/12
f 13/45/13 15/46/15 16/47/16 14/48/14
o Steve_Body
v -0.521593 6.486256 -1.131610
v -0.521593 6.486256 1.163829
v 0.521593 6.486256 1.163828
v 0.521592 6.486256 -1.131611
v -0.521593 3.491547 -1.131610
v -0.521592 3.491547 1.163829
v 0.521593 3.491547 -1.131610
v 0.521593 3.491547 1.163828
vt 0.439419 0.501069
vt 0.313044 0.494516
vt 0.314588 0.373515
vt 0.440962 0.380069
vt 0.622224 0.375264
vt 0.625501 0.005748
vt 0.508958 0.000506
vt 0.505681 0.370022
vt 0.500000 -0.005172
vt 0.500000 0.370784
vt 0.441207 0.370784
vt 0.441206 -0.005172
vt 0.309159 0.373364
vt 0.309159 -0.002509
vt 0.249632 -0.002509
vt 0.249632 0.373364
vt 0.312738 0.372217
vt 0.312738 0.000239
vt 0.438887 0.000239
vt 0.438887 0.372217
vt 0.183671 0.494358
vt 0.127578 0.496613
vt 0.129334 0.382434
vt 0.185427 0.380179
vn -0.577300 0.577300 -0.577300
vn -0.577300 0.577300 0.577300
vn 0.577300 0.577300 0.577300
vn 0.577300 0.577300 -0.577300
vn -0.577300 -0.577300 -0.577300
vn -0.577300 -0.577300 0.577300
vn 0.577300 -0.577300 -0.577300
vn 0.577300 -0.577300 0.577300
usemtl Steve
s 1
f 17/49/17 18/50/18 19/51/19 20/52/20
f 17/53/17 21/54/21 22/55/22 18/56/18
f 21/57/21 17/58/17 20/59/20 23/60/23
f 18/61/18 22/62/22 24/63/24 19/64/19
f 19/65/19 24/66/24 23/67/23 20/68/20
f 21/69/21 23/70/23 24/71/24 22/72/22
o Steve_RLeg
v -0.521593 3.497354 0.000451
v -0.521593 3.497354 1.136699
v 0.521593 3.497354 1.136699
v 0.521592 3.497354 0.000451
v -0.521593 0.502646 0.000451
v -0.521592 0.502646 1.136699
v 0.521593 0.502646 0.000451
v 0.521593 0.502646 1.136698
vt 0.124564 0.372844
vt 0.123284 0.495731
vt 0.062259 0.497328
vt 0.063538 0.374441
vt 0.250211 0.370491
vt 0.250211 0.001371
vt 0.190639 -0.001314
vt 0.190639 0.367806
vt 0.000807 0.009620
vt 0.000807 0.377727
vt 0.059514 0.377727
vt 0.059514 0.009620
vt 0.000878 0.373364
vt 0.000878 0.010074
vt 0.062985 0.010074
vt 0.062985 0.373364
vt 0.065586 0.375905
vt 0.065375 0.003473
vt 0.124947 0.003338
vt 0.125158 0.375770
vt 0.179068 0.489942
vt 0.130391 0.486732
vt 0.129081 0.397994
vt 0.177758 0.401205
vn -0.577300 0.577300 -0.577300
vn -0.577300 0.577300 0.577300
vn 0.577300 0.577300 0.577300
vn 0.577300 0.577300 -0.577300
vn -0.577300 -0.577300 -0.577300
vn -0.577300 -0.577300 0.577300
vn 0.577300 -0.577300 -0.577300
vn 0.577300 -0.577300 0.577300
usemtl Steve
s 1
f 25/73/25 26/74/26 27/75/27 28/76/28
f 25/77/25 29/78/29 30/79/30 26/80/26
f 29/81/29 25/82/25 28/83/28 31/84/31
f 26/85/26 30/86/30 32/87/32 27/88/27
f 27/89/27 32/90/32 31/91/31 28/92/28
f 29/93/29 31/94/31 32/95/32 30/96/30
o Steve_Head
v -1.000000 8.474034 1.006573
v -1.000000 6.474077 0.993383
v -1.000000 6.474077 0.993383
v -1.000000 8.474034 1.006573
v 1.000000 8.474034 1.006573
v 0.999999 8.487225 -0.993383
v -1.000000 8.487224 -0.993383
v -1.000000 6.487268 -1.006573
v 1.000000 8.474034 1.006573
v 1.000000 6.487268 -1.006573
v 1.000000 6.474078 0.993383
v 1.000000 6.474078 0.993383
vt 0.376673 0.749269
vt 0.375900 0.503487
vt 0.125457 0.755906
vt 0.249146 0.755974
vt 0.249112 0.999932
vt 0.125829 0.999911
vt 0.500661 0.750006
vt 0.500024 0.502517
vt 0.253952 0.761856
vt 0.369216 0.761856
vt 0.369216 0.991808
vt 0.253952 0.991808
vt 1.000000 1.000000
vt 1.000000 0.000000
vt 0.123832 0.501264
vt 0.124180 0.750315
vt 0.002091 0.753476
vt 0.001326 0.503335
vt 0.125687 0.503316
vt 0.250780 0.503290
vt 0.251113 0.748845
vt 0.126238 0.747512
vt 0.249306 0.504219
vt 0.374877 0.506418
vt 0.374931 0.749621
vt 0.250104 0.747256
vn -0.407300 0.407300 0.817400
vn -0.409100 -0.409100 0.815600
vn 0.000000 -0.002200 1.000000
vn 0.407300 0.407300 0.817400
vn 0.577300 0.581100 -0.573500
vn -0.577300 0.581100 -0.573500
vn -0.577300 -0.573500 -0.581100
vn 0.577300 -0.573500 -0.581100
vn 0.409100 -0.409100 0.815600
usemtl Steve
s 1
f 33/97/33 34/98/34 35/98/35 36/97/35
f 37/99/36 38/100/37 39/101/38 33/102/33
f 33/97/33 39/103/38 40/104/39 34/98/34
f 37/99/36 33/102/33 36/102/35 41/99/35
f 42/105/40 43/106/41 34/107/34 40/108/39
f 34/109/34 43/110/41 44/110/35 35/109/35
f 44/111/35 41/112/35 36/113/35 35/114/35
f 43/115/41 42/116/40 38/117/37 37/118/36
f 43/115/41 37/118/36 41/118/35 44/115/35
f 42/119/40 40/120/39 39/121/38 38/122/37
o Steve_LArm
v -0.548908 6.487525 -1.114329
v -0.560913 5.351346 -1.110812
v 0.482139 5.340364 -1.098238
v 0.494144 6.476543 -1.101755
v -0.512911 6.477874 -4.108805
v -0.524916 5.341696 -4.105288
v 0.530140 6.466893 -4.096231
v 0.518135 5.330714 -4.092714
vt 0.689934 0.495565
vt 0.689339 0.380423
vt 0.748153 0.380419
vt 0.748748 0.495561
vt 0.691096 0.377156
vt 0.693834 0.001912
vt 0.747501 0.008395
vt 0.753152 0.375250
vt 0.690080 0.003953
vt 0.691833 0.375361
vt 0.751610 0.369261
vt 0.749856 -0.002147
vt 0.688328 0.374991
vt 0.688328 0.005988
vt 0.748819 0.000058
vt 0.748819 0.369061
vt 0.688839 0.369572
vt 0.687600 0.004327
vt 0.751165 0.000589
vt 0.752404 0.365834
vt 0.813120 0.496101
vt 0.757901 0.498796
vt 0.759715 0.389343
vt 0.814246 0.387968
vn -0.578100 0.585300 0.568500
vn -0.590300 -0.569400 0.572100
vn 0.564200 -0.581500 0.586000
vn 0.576400 0.573100 0.582500
vn -0.564200 0.581500 -0.586000
vn -0.576400 -0.573100 -0.582500
vn 0.590300 0.569400 -0.572100
vn 0.578100 -0.585300 -0.568500
usemtl Steve
s 1
f 45/123/42 46/124/43 47/125/44 48/126/45
f 45/127/42 49/128/46 50/129/47 46/130/43
f 49/131/46 45/132/42 48/133/45 51/134/48
f 46/135/43 50/136/47 52/137/49 47/138/44
f 47/139/44 52/140/49 51/141/48 48/142/45
f 49/143/46 51/144/48 52/145/49 50/146/47
